Lab 08 - Linear regression
…
0.2 carat diamond: -2256 + 7756*0.2 = -704.8

Get predicted values and errors

To get predicted values, we can use predict function to plug in the actual data into our model, and save the prediction to our original data set.

hat <- predict(model, diamonds)
diamonds2 <- diamonds %>% 
  mutate(hat = hat,
         error = hat-price) %>% 
  select(price, carat, hat, error)
diamonds2

## # A tibble: 53,940 x 4
##    price carat     hat error
##    <int> <dbl>   <dbl> <dbl>
##  1   326 0.23  -472.   -798.
##  2   326 0.21  -628.   -954.
##  3   327 0.23  -472.   -799.
##  4   334 0.290   -7.00 -341.
##  5   335 0.31   148.   -187.
##  6   336 0.24  -395.   -731.
##  7   336 0.24  -395.   -731.
##  8   337 0.26  -240.   -577.
##  9   337 0.22  -550.   -887.
## 10   338 0.23  -472.   -810.
## #  with 53,930 more rows
…
