Joining data from multiple sources ğŸ¤
…
Filter out countries whose total harvest was less than 100,000 tons since they 
are not included in the visualization:

```r
fisheries <- fisheries %>%
  filter(total > 100000)

fisheries
```

```
## # A tibble: 82 x 4
##    country    capture aquaculture   total
##    <chr>        <dbl>       <dbl>   <dbl>
##  1 Angola      486490         655  487145
##  2 Argentina   755226        3673  758899
##  3 Australia   174629       96847  271476
##  4 Bangladesh 1674770     2203554 3878324
##  5 Brazil      705000      581230 1286230
##  6 Cambodia    629950      172500  802450
##  7 Cameroon    233190        2315  235505
##  8 Canada      874727      200765 1075492
##  9 Chad        110000          94  110094
## 10 Chile      1829238     1050117 2879355
## # â€¦ with 72 more rows
```
…
class: middle

# Data joins

---

.pull-left[

```r
fisheries %>% select(country)
```

```
## # A tibble: 82 x 1
##    country   
##    <chr>     
##  1 Angola    
##  2 Argentina 
##  3 Australia 
##  4 Bangladesh
##  5 Brazil    
##  6 Cambodia  
##  7 Cameroon  
##  8 Canada    
##  9 Chad      
## 10 Chile     
## # â€¦ with 72 more rows
```
]
.pull-right[

```r
continents
```

```
## # A tibble: 245 x 2
##    country           continent
##    <chr>             <chr>    
##  1 Afghanistan       Asia     
##  2 Ã…land Islands     Europe   
##  3 Albania           Europe   
##  4 Algeria           Africa   
##  5 American Samoa    Oceania  
##  6 Andorra           Europe   
##  7 Angola            Africa   
##  8 Anguilla          Americas 
##  9 Antigua & Barbuda Americas 
## 10 Argentina         Americas 
## # â€¦ with 235 more rows
```
…
---

.discussion[
We want to keep all rows and columns from `fisheries` and add a column for 
corresponding continents. Which join function should we use?
]

.pull-left[

```r
fisheries %>% select(country)
```

```
## # A tibble: 82 x 1
##    country   
##    <chr>     
##  1 Angola    
##  2 Argentina 
##  3 Australia 
##  4 Bangladesh
##  5 Brazil    
##  6 Cambodia  
##  7 Cameroon  
##  8 Canada    
##  9 Chad      
## 10 Chile     
## # â€¦ with 72 more rows
```
]
.pull-right[

```r
continents
```

```
## # A tibble: 245 x 2
##    country           continent
##    <chr>             <chr>    
##  1 Afghanistan       Asia     
##  2 Ã…land Islands     Europe   
##  3 Albania           Europe   
##  4 Algeria           Africa   
##  5 American Samoa    Oceania  
##  6 Andorra           Europe   
##  7 Angola            Africa   
##  8 Anguilla          Americas 
##  9 Antigua & Barbuda Americas 
## 10 Argentina         Americas 
## # â€¦ with 235 more rows
```
…
<img src="s1-6-data-join_files/figure-html/unnamed-chunk-45-1.png" width="3600" />
]

---

## Join fisheries and world map

.pull-left[

```r
fisheries %>% select(country)
```

```
## # A tibble: 82 x 1
##    country   
##    <chr>     
##  1 Angola    
##  2 Argentina 
##  3 Australia 
##  4 Bangladesh
##  5 Brazil    
##  6 Cambodia  
##  7 Cameroon  
##  8 Canada    
##  9 Chad      
## 10 Chile     
## # â€¦ with 72 more rows
```
…
