Homework 1 - Data wrangling and visualization
…
Question 1 - Warm-up

Q1-1. Remove the columns year from your data frame (flights) [Hint: select()]

flights %>%
  select(-year)

## # A tibble: 336,776 x 18
##    month   day dep_time sched_dep_time dep_delay arr_time sched_arr_time
##    <int> <int>    <int>          <int>     <dbl>    <int>          <int>
##  1     1     1      517            515         2      830            819
##  2     1     1      533            529         4      850            830
##  3     1     1      542            540         2      923            850
##  4     1     1      544            545        -1     1004           1022
##  5     1     1      554            600        -6      812            837
##  6     1     1      554            558        -4      740            728
##  7     1     1      555            600        -5      913            854
##  8     1     1      557            600        -3      709            723
##  9     1     1      557            600        -3      838            846
## 10     1     1      558            600        -2      753            745
## #  with 336,766 more rows, and 11 more variables: arr_delay <dbl>,
## #   carrier <chr>, flight <int>, tailnum <chr>, origin <chr>, dest <chr>,
## #   air_time <dbl>, distance <dbl>, hour <dbl>, minute <dbl>, time_hour <dttm>
…
Question 4 - Which airline carrier is the most frequently departed from each of the NYC airports?

Q4-1. Group flights by (origin, carrier) and count the number of flights for each group [Hint: use group_by() and summarize()]

flights %>%
  group_by(origin, carrier) %>%
  summarize(n=n())

## `summarise()` regrouping output by 'origin' (override with `.groups` argument)

## # A tibble: 35 x 3
## # Groups:   origin [3]
##    origin carrier     n
##    <chr>  <chr>   <int>
##  1 EWR    9E       1268
##  2 EWR    AA       3487
##  3 EWR    AS        714
##  4 EWR    B6       6557
##  5 EWR    DL       4342
##  6 EWR    EV      43939
##  7 EWR    MQ       2276
##  8 EWR    OO          6
##  9 EWR    UA      46087
## 10 EWR    US       4405
## #  with 25 more rows
…
