Review & Remark 👋
…
```r
hotels %>%
  select(hotel, lead_time) %>% 
* arrange(desc(lead_time))
```

```
## # A tibble: 119,390 x 2
##    hotel        lead_time
##    <chr>            <dbl>
##  1 Resort Hotel       737
##  2 Resort Hotel       709
##  3 City Hotel         629
##  4 City Hotel         629
##  5 City Hotel         629
##  6 City Hotel         629
##  7 City Hotel         629
##  8 City Hotel         629
##  9 City Hotel         629
## 10 City Hotel         629
## # … with 119,380 more rows
```
…
