Lab 07 - Tidy data
…
pivot_longer() takes four arguments: data, cols, names_to, and values_to. The data argument is omitted because we use %>% to pipe the data directly into the function. The next argument, cols, is the column names that we want to shrink down, which in this case all the years. names_to is the name of the column for whats specified in cols. Lastly, values_to is the name of the column for the cell value.

The above code works fine but could improve, specifically in how it specifies cols. Instead of specifying the columns to include, we can specify the columns to exclude as well, using - sign in front of variable names.

staff_long <- staff %>%
  pivot_longer(
    cols = -faculty_type, 
    names_to = "year", 
    values_to = "percentage"
    )

staff_long

## # A tibble: 55 x 3
##    faculty_type              year  percentage
##    <chr>                     <chr>      <dbl>
##  1 Full-Time Tenured Faculty 1975        29  
##  2 Full-Time Tenured Faculty 1989        27.6
##  3 Full-Time Tenured Faculty 1993        25  
##  4 Full-Time Tenured Faculty 1995        24.8
##  5 Full-Time Tenured Faculty 1999        21.8
##  6 Full-Time Tenured Faculty 2001        20.3
##  7 Full-Time Tenured Faculty 2003        19.3
##  8 Full-Time Tenured Faculty 2005        17.8
##  9 Full-Time Tenured Faculty 2007        17.2
## 10 Full-Time Tenured Faculty 2009        16.8
## #  with 45 more rows
…
