Data visualization 2 📊📊
…
```r
library(nycflights13)
dow = c("Monday", "Tuesday", "Wednesday", "Thursday", "Friday", "Saturday", "Sunday")
flights1 <- flights %>% 
  mutate(total_delay = dep_delay + arr_delay,
         date = as.Date(paste(year, month, day, sep='-')),
         weekday = factor(weekdays(date), levels= dow))
flights1 %>% 
  select(date, origin, total_delay)
```

```
## # A tibble: 336,776 x 3
##    date       origin total_delay
##    <date>     <chr>        <dbl>
##  1 2013-01-01 EWR             13
##  2 2013-01-01 LGA             24
##  3 2013-01-01 JFK             35
##  4 2013-01-01 JFK            -19
##  5 2013-01-01 LGA            -31
##  6 2013-01-01 EWR              8
##  7 2013-01-01 EWR             14
##  8 2013-01-01 LGA            -17
##  9 2013-01-01 JFK            -11
## 10 2013-01-01 LGA              6
## # … with 336,766 more rows
```
…
