Lab 03 - Data visualization 1
…
Were going to use Starwars data set. To use it, we first need to call tidyverse pkg.

library(tidyverse)

## Warning: package 'ggplot2' was built under R version 3.6.2

## Warning: package 'tibble' was built under R version 3.6.2

## Warning: package 'purrr' was built under R version 3.6.2

## Warning: package 'dplyr' was built under R version 3.6.2

starwars

## # A tibble: 87 x 14
##    name  height  mass hair_color skin_color eye_color birth_year sex   gender
##    <chr>  <int> <dbl> <chr>      <chr>      <chr>          <dbl> <chr> <chr> 
##  1 Luke    172    77 blond      fair       blue            19   male  mascu
##  2 C-3PO    167    75 <NA>       gold       yellow         112   none  mascu
##  3 R2-D2     96    32 <NA>       white, bl red             33   none  mascu
##  4 Dart    202   136 none       white      yellow          41.9 male  mascu
##  5 Leia    150    49 brown      light      brown           19   fema femin
##  6 Owen    178   120 brown, gr light      blue            52   male  mascu
##  7 Beru    165    75 brown      light      blue            47   fema femin
##  8 R5-D4     97    32 <NA>       white, red red             NA   none  mascu
##  9 Bigg    183    84 black      light      brown           24   male  mascu
## 10 Obi-    182    77 auburn, w fair       blue-gray       57   male  mascu
## #  with 77 more rows, and 5 more variables: homeworld <chr>, species <chr>,
## #   films <list>, vehicles <list>, starships <list>
…
