Lab 06 - Data join
…
Join tables

To join the two tables, we used left_join() in the lecture. Thats because we wanted to keep even the observations that have no match in the continents table. Lets try both left_join() and inner_join() this time to see if there is any difference.

fisheries_innerjoin <- inner_join(fisheries, continents)

## Joining, by = "country"

fisheries_leftjoin <- left_join(fisheries, continents)

## Joining, by = "country"

fisheries_innerjoin

## # A tibble: 79 x 5
##    country    capture aquaculture   total continent
##    <chr>        <dbl>       <dbl>   <dbl> <chr>    
##  1 Angola      486490         655  487145 Africa   
##  2 Argentina   755226        3673  758899 Americas 
##  3 Australia   174629       96847  271476 Oceania  
##  4 Bangladesh 1674770     2203554 3878324 Asia     
##  5 Brazil      705000      581230 1286230 Americas 
##  6 Cambodia    629950      172500  802450 Asia     
##  7 Cameroon    233190        2315  235505 Africa   
##  8 Canada      874727      200765 1075492 Americas 
##  9 Chad        110000          94  110094 Africa   
## 10 Chile      1829238     1050117 2879355 Americas 
## #  with 69 more rows

fisheries_leftjoin

## # A tibble: 82 x 5
##    country    capture aquaculture   total continent
##    <chr>        <dbl>       <dbl>   <dbl> <chr>    
##  1 Angola      486490         655  487145 Africa   
##  2 Argentina   755226        3673  758899 Americas 
##  3 Australia   174629       96847  271476 Oceania  
##  4 Bangladesh 1674770     2203554 3878324 Asia     
##  5 Brazil      705000      581230 1286230 Americas 
##  6 Cambodia    629950      172500  802450 Asia     
##  7 Cameroon    233190        2315  235505 Africa   
##  8 Canada      874727      200765 1075492 Americas 
##  9 Chad        110000          94  110094 Africa   
## 10 Chile      1829238     1050117 2879355 Americas 
## #  with 72 more rows
…
